{
  "users": [
    {
      "id": 1,
      "title": "Me",
      "email": "mc@dabb.ru",
      "token": "SomeToken",
      "role": {
        "id": "manager",
        "title": "Manager"
      }
    }
  ],
  "deals": [
    {
      "title": "ergreg",
      "coord": "12, 56",
      "id": "bd250246-953a-49c8-8cf5-0a90e8048bf4",
      "userId": 1,
      "status": "open"
    }
  ]
}